Paswords - A Hugo website
…
passwords

## # A tibble: 507 x 9
##     rank password category value time_unit offline_crack_s… rank_alt strength
##    <dbl> <chr>    <chr>    <dbl> <chr>                <dbl>    <dbl>    <dbl>
##  1     1 password passwor…  6.91 years          2.17               1        8
##  2     2 123456   simple-… 18.5  minutes        0.0000111          2        4
##  3     3 12345678 simple-…  1.29 days           0.00111            3        4
##  4     4 1234     simple-… 11.1  seconds        0.000000111        4        4
##  5     5 qwerty   simple-…  3.72 days           0.00321            5        8
##  6     6 12345    simple-…  1.85 minutes        0.00000111         6        4
##  7     7 dragon   animal    3.72 days           0.00321            7        8
##  8     8 baseball sport     6.91 years          2.17               8        4
##  9     9 football sport     6.91 years          2.17               9        7
## 10    10 letmein  passwor…  3.19 months         0.0835            10        8
## # … with 497 more rows, and 1 more variable: font_size <dbl>
…
