…
DATA

food_consumption <- readr::read_csv('https://raw.githubusercontent.com/rfordatascience/tidytuesday/master/data/2020/2020-02-18/food_consumption.csv')

## Parsed with column specification:
## cols(
##   country = col_character(),
##   food_category = col_character(),
##   consumption = col_double(),
##   co2_emmission = col_double()
## )

food_consumption

## # A tibble: 1,430 x 4
##    country   food_category            consumption co2_emmission
##    <chr>     <chr>                          <dbl>         <dbl>
##  1 Argentina Pork                           10.5          37.2 
##  2 Argentina Poultry                        38.7          41.5 
##  3 Argentina Beef                           55.5        1712   
##  4 Argentina Lamb & Goat                     1.56         54.6 
##  5 Argentina Fish                            4.36          6.96
##  6 Argentina Eggs                           11.4          10.5 
##  7 Argentina Milk - inc. cheese            195.          278.  
##  8 Argentina Wheat and Wheat Products      103.           19.7 
##  9 Argentina Rice                            8.77         11.2 
## 10 Argentina Soybeans                        0             0   
## # … with 1,420 more rows
…
dt <- data.frame(readr::read_csv('https://raw.githubusercontent.com/rfordatascience/tidytuesday/master/data/2020/2020-02-18/food_consumption.csv'))

## Parsed with column specification:
## cols(
##   country = col_character(),
##   food_category = col_character(),
##   consumption = col_double(),
##   co2_emmission = col_double()
## )

dt %>%
    group_by(country) %>%
    summarize(total_co2 = sum(co2_emmission)) 

## # A tibble: 130 x 2
##    country    total_co2
##    <chr>          <dbl>
##  1 Albania        1778.
##  2 Algeria         708.
##  3 Angola          413.
##  4 Argentina      2172.
##  5 Armenia        1110.
##  6 Australia      1939.
##  7 Austria        1211.
##  8 Bahamas        1193.
##  9 Bangladesh      374.
## 10 Barbados        889.
## # … with 120 more rows
…
